<svg xmlns="http://www.w3.org/2000/svg" width="19" height="23" viewBox="0 0 19 23">
  <g id="Group_2" data-name="Group 2" transform="translate(-1590 -289)">
    <g id="Rectangle_5" data-name="Rectangle 5" transform="translate(1590 289)" fill="none" stroke="#000" stroke-width="2">
      <rect width="6" height="23" rx="2" stroke="none"/>
      <rect x="1" y="1" width="4" height="21" rx="1" fill="none"/>
    </g>
    <g id="Rectangle_6" data-name="Rectangle 6" transform="translate(1603 289)" fill="none" stroke="#000" stroke-width="2">
      <rect width="6" height="23" rx="2" stroke="none"/>
      <rect x="1" y="1" width="4" height="21" rx="1" fill="none"/>
    </g>
  </g>
</svg>
